A CapeTown
B Genoa
C Milan
D Paris
E Verona
F Naples
G Florence
H Venice
I Rome
J Dijon
K Lille
L Nantes
M Nice
N Lyon
O Bordeaux
P Marseille
Q Rangpur
R Rajshahi
S Kanpur
T Surat
U Pune
V Bengaluru
W Johannesburg
X Lagos
Y Cairo
Z Nairobi
