Name               Stmts   Miss Branch BrPart  Cover   Missing
--------------------------------------------------------------
Diplomacy.py          77      2     50      2    97%   47, 71
TestDiplomacy.py      69      0      4      1    99%   133->exit
--------------------------------------------------------------
TOTAL                146      2     54      3    98%